\relax 
\newlabel{FirstPage}{{}{1}{}{}{}}
\@writefile{toc}{\contentsline {section}{\numberline {I}Overview of Device Layout}{1}{}}
\@writefile{toc}{\contentsline {section}{\numberline {II}Checking the Device is Connected}{1}{}}
\@writefile{toc}{\contentsline {section}{\numberline {III}Programming the FPGA}{1}{}}
\@writefile{toc}{\contentsline {section}{\numberline {IV}Communication with the FPGA}{1}{}}
\@writefile{toc}{\contentsline {subsection}{\numberline {A}Communication with the DDS}{1}{}}
\newlabel{tab:states}{{IV}{2}{}{}{}}
\@writefile{lof}{\contentsline {figure}{\numberline {1}{\ignorespaces }}{2}{}}
\newlabel{fig:com_RAM}{{1}{2}{}{}{}}
\@writefile{toc}{\contentsline {subsection}{\numberline {B}Fast Triggering}{3}{}}
\@writefile{toc}{\contentsline {subsection}{\numberline {C}WRITE\_SWEEP\_TRIG Protocol}{3}{}}
\@writefile{toc}{\contentsline {section}{\numberline {V}FPGA Code}{3}{}}
\@writefile{lof}{\contentsline {figure}{\numberline {2}{\ignorespaces }}{4}{}}
\newlabel{fig:FPGA}{{2}{4}{}{}{}}
\@writefile{toc}{\contentsline {section}{\numberline {VI}Device Capabilities}{4}{}}
\@writefile{toc}{\contentsline {section}{\numberline {VII}Future Improvements}{4}{}}
\@writefile{toc}{\contentsline {section}{\numberline {VIII}The V0.1 Prototype}{5}{}}
\@writefile{toc}{\contentsline {section}{\numberline {IX}The V0.2 Prototype}{5}{}}
\@writefile{toc}{\contentsline {subsection}{\numberline {A}Faults}{5}{}}
\@writefile{lof}{\contentsline {figure}{\numberline {3}{\ignorespaces }}{6}{}}
\newlabel{fig:Jumpers}{{3}{6}{}{}{}}
\bibstyle{apsrev}
\@writefile{toc}{\contentsline {section}{\numberline {X}Procedures for Modification and Maintenance}{7}{}}
\@writefile{toc}{\contentsline {section}{\numberline {XI}Glossary}{7}{}}
\newlabel{LastPage}{{}{7}}
